Introduction to SRT integration • SRTpipeline
…
We take out the top DE genes for each cluster for visualization.

library(dplyr)
n <- 5
dat_degs %>%
    as.data.frame %>%
    group_by(cluster) %>%
    top_n(n = n, wt = avg_log2FC) -> topGene
topGene

## # A tibble: 22 x 7
## # Groups:   cluster [5]
##        p_val avg_log2FC pct.1 pct.2 p_val_adj cluster gene   
##        <dbl>      <dbl> <dbl> <dbl>     <dbl> <fct>   <chr>  
##  1 2.13e-133     -0.277 0.974 0.976 4.27e-130 1       Cyp2f2 
##  2 2.63e- 67      0.301 0.904 0.778 5.26e- 64 1       Cyp3a44
##  3 3.18e- 58     -0.261 0.843 0.884 6.37e- 55 1       Ctsc   
##  4 1.33e- 35     -0.267 0.702 0.777 2.66e- 32 1       Etnppl 
##  5 1.69e- 35     -0.297 0.661 0.742 3.38e- 32 1       Aldh1b1
##  6 7.35e-225      0.659 0.976 0.79  1.47e-221 2       Sds    
##  7 7.87e-190      0.497 0.99  0.849 1.57e-186 2       Ctsc   
##  8 5.27e-178      0.627 0.925 0.679 1.05e-174 2       Aldh1b1
##  9 6.11e-106      0.463 0.906 0.727 1.22e-102 2       Etnppl 
## 10 2.26e- 79      0.516 0.798 0.594 4.53e- 76 2       Spp1   
## # ... with 12 more rows
…
