Fast and accurate multiple data integration • SRTpipeline
…
We take out the top DE genes for each cluster for visualization.

library(dplyr)
n <- 5
dat_degs %>%
    as.data.frame %>%
    group_by(cluster) %>%
    top_n(n = n, wt = avg_log2FC) -> topGene
topGene

## # A tibble: 35 x 7
## # Groups:   cluster [7]
##        p_val avg_log2FC pct.1 pct.2 p_val_adj cluster gene    
##        <dbl>      <dbl> <dbl> <dbl>     <dbl> <fct>   <chr>   
##  1 1.41e-301      0.577 0.898 0.672 2.82e-298 1       Hpcal1  
##  2 3.57e-187      0.387 0.924 0.814 7.14e-184 1       Hopx    
##  3 6.10e- 72      0.295 0.781 0.655 1.22e- 68 1       Serpine2
##  4 1.62e- 59      0.389 0.643 0.533 3.24e- 56 1       Cartpt  
##  5 2.92e- 48      0.304 0.659 0.569 5.84e- 45 1       Sowaha  
##  6 3.51e-194      0.268 0.977 0.957 7.03e-191 2       Nefl    
##  7 1.04e-145      0.365 0.871 0.825 2.07e-142 2       Nefm    
##  8 2.97e- 74      0.267 0.852 0.831 5.95e- 71 2       Sncg    
##  9 7.35e- 59      0.292 0.779 0.76  1.47e- 55 2       Scn1b   
## 10 7.22e- 14      0.278 0.619 0.634 1.44e- 10 2       Nefh    
## # ... with 25 more rows
…
