SRT data embedding, clustering and integration • SRTpipeline
…
We take out the top DE genes for each cluster for visualization.

library(dplyr)
n <- 5
dat_degs %>%
    as.data.frame %>%
    group_by(cluster) %>%
    top_n(n = n, wt = avg_log2FC) -> topGene
topGene

## # A tibble: 70 x 7
## # Groups:   cluster [14]
##       p_val avg_log2FC pct.1 pct.2 p_val_adj cluster gene   
##       <dbl>      <dbl> <dbl> <dbl>     <dbl> <fct>   <chr>  
##  1 3.45e-93      0.693 0.962 0.843  6.90e-90 1       CAVIN1 
##  2 3.81e-89      0.766 0.927 0.862  7.62e-86 1       SPARCL1
##  3 2.20e-82      0.778 0.955 0.833  4.41e-79 1       VWF    
##  4 4.58e-81      0.835 0.91  0.774  9.17e-78 1       AQP1   
##  5 5.50e-37      0.755 0.774 0.62   1.10e-33 1       ACKR1  
##  6 5.01e-85      0.316 0.988 0.999  1.00e-81 2       IGLC2  
##  7 2.48e-65      0.340 0.934 0.982  4.96e-62 2       C3     
##  8 1.55e-50      0.379 0.911 0.949  3.09e-47 2       IGLC1  
##  9 2.98e-20      0.334 0.87  0.873  5.97e-17 2       IGLC3  
## 10 8.97e-17      0.378 0.762 0.759  1.79e-13 2       CCL19  
## # ... with 60 more rows
…
