SRT data embedding, clustering and integration • SRTpipeline
…
We take out the top DE genes for each cluster for visualization.

library(dplyr)
n <- 5
dat_degs %>%
    as.data.frame %>%
    group_by(cluster) %>%
    top_n(n = n, wt = avg_log2FC) -> topGene
topGene

## # A tibble: 40 x 7
## # Groups:   cluster [8]
##        p_val avg_log2FC pct.1 pct.2 p_val_adj cluster gene   
##        <dbl>      <dbl> <dbl> <dbl>     <dbl> <fct>   <chr>  
##  1 1.33e-302      0.681 0.842 0.658 2.65e-299 1       LCN2   
##  2 9.48e-239      0.613 0.87  0.735 1.90e-235 1       SPINK1 
##  3 2.98e-220      0.492 0.896 0.766 5.96e-217 1       CYP3A7 
##  4 1.38e-209      0.482 0.816 0.629 2.75e-206 1       GPC3   
##  5 1.11e-177      0.487 0.85  0.715 2.21e-174 1       AKR1B10
##  6 7.71e-270      0.609 0.999 0.858 1.54e-266 2       CYP2A6 
##  7 1.04e-209      0.589 0.997 0.859 2.09e-206 2       HAMP   
##  8 4.64e-192      0.538 0.971 0.762 9.28e-189 2       APOF   
##  9 2.49e-185      0.556 0.999 0.858 4.99e-182 2       MT1E   
## 10 4.42e-137      0.604 0.999 0.907 8.84e-134 2       RBP4   
## # ... with 30 more rows
…
