A basic overview of multiple data analysis • SRTpipeline
…
We take out the top DE genes for each cluster for visualization.

library(dplyr)
n <- 5
dat_degs %>%
    as.data.frame %>%
    group_by(cluster) %>%
    top_n(n = n, wt = avg_log2FC) -> topGene
topGene

## # A tibble: 22 x 7
## # Groups:   cluster [5]
##        p_val avg_log2FC pct.1 pct.2 p_val_adj cluster gene   
##        <dbl>      <dbl> <dbl> <dbl>     <dbl> <fct>   <chr>  
##  1 1.30e- 98     -0.250 0.987 0.973 2.60e- 95 1       Cyp2f2 
##  2 1.64e- 63      0.314 0.928 0.779 3.28e- 60 1       Cyp3a44
##  3 1.78e- 48     -0.356 0.802 0.827 3.56e- 45 1       Sds    
##  4 5.89e- 22     -0.264 0.672 0.727 1.18e- 18 1       Aldh1b1
##  5 1.08e-213      0.660 0.984 0.791 2.17e-210 2       Sds    
##  6 2.61e-186      0.509 0.993 0.848 5.22e-183 2       Ctsc   
##  7 1.24e-166      0.629 0.925 0.677 2.48e-163 2       Aldh1b1
##  8 2.60e-107      0.475 0.919 0.728 5.21e-104 2       Etnppl 
##  9 1.27e- 72      0.524 0.8   0.599 2.54e- 69 2       Spp1   
## 10 3.05e- 42      0.253 0.979 0.877 6.10e- 39 3       A1bg   
## # ... with 12 more rows
…
