SRT data embedding and clustering • SRTpipeline
…
We take out the top DE genes for each cluster for visualization.

library(dplyr)
n <- 3
dat_degs %>%
    as.data.frame %>%
    group_by(cluster) %>%
    top_n(n = n, wt = avg_log2FC) -> topGene
topGene

## # A tibble: 75 x 7
## # Groups:   cluster [25]
##        p_val avg_log2FC pct.1 pct.2 p_val_adj cluster gene   
##        <dbl>      <dbl> <dbl> <dbl>     <dbl> <fct>   <chr>  
##  1 2.50e- 10     -0.256 0.039 0.121 8.79e-  8 1       Hoxa13 
##  2 3.07e- 10     -0.254 0.033 0.109 1.08e-  7 1       Tdo2   
##  3 5.00e- 10     -0.251 0.039 0.119 1.75e-  7 1       Psmb8  
##  4 0              1.62  0.737 0.131 0         2       Foxa1  
##  5 0              1.57  0.715 0.122 0         2       Cdh1   
##  6 0              1.54  0.761 0.157 0         2       Cldn4  
##  7 0              0.980 0.942 0.454 0         3       Col26a1
##  8 9.93e-305      1.13  0.894 0.334 3.48e-302 3       Foxc2  
##  9 1.49e-304      1.16  0.88  0.336 5.22e-302 3       Meox1  
## 10 0              1.48  0.914 0.26  0         4       Foxf1  
## # ... with 65 more rows
…
