SRT data clustering • SRTpipeline
…
We take out the top DE genes for each cluster for visualization.

library(dplyr)
n <- 3
dat_degs %>%
    as.data.frame %>%
    group_by(cluster) %>%
    top_n(n = n, wt = avg_log2FC) -> topGene
topGene

## # A tibble: 75 x 7
## # Groups:   cluster [25]
##          p_val avg_log2FC pct.1 pct.2 p_val_adj cluster gene 
##          <dbl>      <dbl> <dbl> <dbl>     <dbl> <fct>   <chr>
##  1 0.000000117     -0.285 0.027 0.103 0.0000411 1       Wisp1
##  2 0.000000160     -0.282 0.031 0.108 0.0000562 1       Tdo2 
##  3 0.000000223     -0.283 0.027 0.1   0.0000781 1       Mixl1
##  4 0                1.66  0.767 0.131 0         2       Foxa1
##  5 0                1.62  0.75  0.121 0         2       Cdh1 
##  6 0                1.59  0.639 0.097 0         2       Shh  
##  7 0                1.43  0.802 0.208 0         3       Cdh5 
##  8 0                1.35  0.835 0.263 0         3       Plvap
##  9 0                1.31  0.68  0.172 0         3       Cd34 
## 10 0                1.42  0.908 0.271 0         4       Foxf1
## # ... with 65 more rows
…
